module gitlab.com/gitlab-org/cli

go 1.21

require (
	github.com/AlecAivazis/survey/v2 v2.3.6
	github.com/MakeNowJust/heredoc v1.0.0
	github.com/acarl005/stripansi v0.0.0-20180116102854-5a71ef0e047d
	github.com/avast/retry-go v3.0.0+incompatible
	github.com/briandowns/spinner v1.23.0
	github.com/charmbracelet/glamour v0.6.0
	github.com/dustin/go-humanize v1.0.1
	github.com/gdamore/tcell/v2 v2.6.0
	github.com/google/renameio/v2 v2.0.0
	github.com/google/shlex v0.0.0-20191202100458-e7afc7fbc510
	github.com/gosuri/uilive v0.0.4
	github.com/hashicorp/go-multierror v1.1.1
	github.com/hashicorp/go-retryablehttp v0.7.5
	github.com/hashicorp/go-version v1.6.0
	github.com/kballard/go-shellquote v0.0.0-20180428030007-95032a82bc51
	github.com/lunixbochs/vtclean v1.0.0
	github.com/mattn/go-colorable v0.1.13
	github.com/mattn/go-isatty v0.0.19
	github.com/mattn/go-runewidth v0.0.14
	github.com/mgutz/ansi v0.0.0-20200706080929-d51e80ef957d
	github.com/mitchellh/go-homedir v1.1.0
	github.com/muesli/termenv v0.15.1
	github.com/otiai10/copy v1.11.0
	github.com/pkg/errors v0.9.1
	github.com/rivo/tview v0.0.0-20230621164836-6cc0565babaf
	github.com/spf13/cast v1.5.1
	github.com/spf13/cobra v1.7.0
	github.com/spf13/pflag v1.0.5
	github.com/spf13/viper v1.16.0
	github.com/stretchr/testify v1.8.3
	github.com/tidwall/pretty v1.2.1
	github.com/xanzy/go-gitlab v0.101.0
	github.com/zalando/go-keyring v0.2.3
	golang.org/x/sync v0.2.0
	golang.org/x/term v0.18.0
	golang.org/x/text v0.14.0
	gopkg.in/yaml.v3 v3.0.1
	k8s.io/apimachinery v0.27.2
	k8s.io/client-go v0.27.2
)

require (
	github.com/alecthomas/chroma v0.10.0 // indirect
	github.com/alessio/shellescape v1.4.1 // indirect
	github.com/aymanbagabas/go-osc52/v2 v2.0.1 // indirect
	github.com/aymerick/douceur v0.2.0 // indirect
	github.com/cpuguy83/go-md2man/v2 v2.0.2 // indirect
	github.com/danieljoos/wincred v1.2.0 // indirect
	github.com/davecgh/go-spew v1.1.1 // indirect
	github.com/dlclark/regexp2 v1.10.0 // indirect
	github.com/fatih/color v1.15.0 // indirect
	github.com/fsnotify/fsnotify v1.6.0 // indirect
	github.com/gdamore/encoding v1.0.0 // indirect
	github.com/go-logr/logr v1.2.3 // indirect
	github.com/godbus/dbus/v5 v5.1.0 // indirect
	github.com/gogo/protobuf v1.3.2 // indirect
	github.com/golang/protobuf v1.5.4 // indirect
	github.com/google/go-querystring v1.1.0 // indirect
	github.com/google/gofuzz v1.1.0 // indirect
	github.com/gorilla/css v1.0.0 // indirect
	github.com/hashicorp/errwrap v1.1.0 // indirect
	github.com/hashicorp/go-cleanhttp v0.5.2 // indirect
	github.com/hashicorp/hcl v1.0.0 // indirect
	github.com/imdario/mergo v0.3.6 // indirect
	github.com/inconshreveable/mousetrap v1.1.0 // indirect
	github.com/json-iterator/go v1.1.12 // indirect
	github.com/lucasb-eyer/go-colorful v1.2.0 // indirect
	github.com/magiconair/properties v1.8.7 // indirect
	github.com/microcosm-cc/bluemonday v1.0.24 // indirect
	github.com/mitchellh/mapstructure v1.5.0 // indirect
	github.com/modern-go/concurrent v0.0.0-20180306012644-bacd9c7ef1dd // indirect
	github.com/modern-go/reflect2 v1.0.2 // indirect
	github.com/muesli/reflow v0.3.0 // indirect
	github.com/olekukonko/tablewriter v0.0.5 // indirect
	github.com/pelletier/go-toml/v2 v2.0.8 // indirect
	github.com/pmezard/go-difflib v1.0.0 // indirect
	github.com/rivo/uniseg v0.4.4 // indirect
	github.com/russross/blackfriday/v2 v2.1.0 // indirect
	github.com/spf13/afero v1.9.5 // indirect
	github.com/spf13/jwalterweatherman v1.1.0 // indirect
	github.com/subosito/gotenv v1.4.2 // indirect
	github.com/yuin/goldmark v1.5.4 // indirect
	github.com/yuin/goldmark-emoji v1.0.1 // indirect
	golang.org/x/net v0.23.0 // indirect
	golang.org/x/oauth2 v0.19.0 // indirect
	golang.org/x/sys v0.18.0 // indirect
	golang.org/x/time v0.5.0 // indirect
	gopkg.in/inf.v0 v0.9.1 // indirect
	gopkg.in/ini.v1 v1.67.0 // indirect
	gopkg.in/yaml.v2 v2.4.0 // indirect
	k8s.io/klog/v2 v2.90.1 // indirect
	k8s.io/utils v0.0.0-20230209194617-a36077c30491 // indirect
	sigs.k8s.io/json v0.0.0-20221116044647-bc3834ca7abd // indirect
	sigs.k8s.io/structured-merge-diff/v4 v4.2.3 // indirect
	sigs.k8s.io/yaml v1.3.0 // indirect
)
